scope/tek0001ALL.csv

Model,MDO3104
Firmware Version,1.20

Waveform Type,ANALOG,,
Point Format,Y,,
Horizontal Units,s,,
Horizontal Scale,0.02,,
Horizontal Delay,0,,
Sample Interval,2e-07,,
Record Length,1e+06,,
Gating,70.96500% to 75.0600%,,
Probe Attenuation,10,10,10
Vertical Units,V,V,V
Vertical Offset,0,0,0
Vertical Scale,5,5,5
Vertical Position,1.18,0,-1.06
,,,
,,,
,,,
Label,,,
TIME,CH1,CH2,CH3
4.192980e-02,5.3,0.2,0.1
4.193000e-02,5.1,0,0.1
4.193020e-02,5.1,0,0.3
4.193040e-02,5.1,0,0.1
4.193060e-02,5.1,0.2,0.1
4.193080e-02,5.1,0.2,0.1
4.193100e-02,4.9,0,0.1
4.193120e-02,5.1,0.2,0.1
4.193140e-02,4.9,0.2,0.1
4.193160e-02,5.1,0.2,0.1
4.193180e-02,5.1,0,0.1
4.193200e-02,4.9,0,-0.1
4.193220e-02,5.1,0,0.1
4.193240e-02,5.3,0.2,0.1
4.193260e-02,5.3,0.2,0.1
4.193280e-02,5.1,0.2,0.1
4.193300e-02,5.1,0,0.1
4.193320e-02,5.5,0,0.3
4.193340e-02,5.3,0.2,0.1
4.193360e-02,4.9,0,0.3
4.193380e-02,4.9,0.2,0.1
4.193400e-02,4.9,0.2,0.1
4.193420e-02,5.3,0.2,0.1
4.193440e-02,5.5,0.4,-0.1
4.193460e-02,5.3,0,0.3
4.193480e-02,4.9,0.2,0.1
4.193500e-02,5.1,0.2,0.1
4.193520e-02,5.1,0,0.1
4.193540e-02,5.3,0,0.1
4.193560e-02,4.9,0,0.1
4.193580e-02,4.9,0,-0.1
4.193600e-02,5.1,0,0.3
4.193620e-02,4.9,0.2,-0.1
4.193640e-02,5.1,0.2,0.1
4.193660e-02,5.1,0,0.1
4.193680e-02,5.3,0.2,0.1
4.193700e-02,5.1,0,0.1
4.193720e-02,5.1,0.2,0.1
4.193740e-02,5.3,0.2,-0.1
4.193760e-02,5.1,0.2,0.1
4.193780e-02,5.3,0.2,0.1
4.193800e-02,4.9,0.2,0.5
4.193820e-02,4.9,0.2,0.1
4.193840e-02,5.1,0.2,0.1
4.193860e-02,5.3,0.2,0.1
4.193880e-02,5.3,0.2,0.1
4.193900e-02,4.9,0,0.1
4.193920e-02,5.1,0,0.1
4.193940e-02,5.1,0.2,0.1
4.193960e-02,5.1,0.2,0.1
4.193980e-02,5.1,0.2,0.1
4.194000e-02,4.9,0.4,0.1
4.194020e-02,5.1,0.2,0.1
4.194040e-02,5.3,0.2,0.3
4.194060e-02,4.9,0.2,0.1
4.194080e-02,5.1,0.2,0.1
4.194100e-02,5.3,0.2,0.1
4.194120e-02,5.1,0.4,0.1
4.194140e-02,5.1,0,0.1
4.194160e-02,5.3,0,-0.1
4.194180e-02,5.5,0.2,0.3
4.194200e-02,5.3,0.2,0.1
4.194220e-02,4.9,0,0.3
4.194240e-02,5.1,0,0.3
4.194260e-02,5.1,0.2,0.1
4.194280e-02,5.1,0.2,0.1
4.194300e-02,5.1,0.2,0.1
4.194320e-02,5.1,0.2,0.3
4.194340e-02,5.1,0,0.1
4.194360e-02,5.1,0,0.1
4.194380e-02,5.3,0.4,0.1
4.194400e-02,5.3,0.2,0.1
4.194420e-02,5.1,0,-0.1
4.194440e-02,5.1,0.2,0.1
4.194460e-02,5.3,0.2,-0.1
4.194480e-02,5.1,0.2,0.1
4.194500e-02,5.1,0,0.1
4.194520e-02,5.1,0,0.3
4.194540e-02,5.3,0,0.1
4.194560e-02,5.1,0,0.1
4.194580e-02,4.9,0.2,-0.1
4.194600e-02,5.3,0,0.1
4.194620e-02,5.1,0.2,-0.1
4.194640e-02,5.1,0.4,-0.1
4.194660e-02,4.9,0.2,0.3
4.194680e-02,5.1,0,0.1
4.194700e-02,4.9,0.2,0.1
4.194720e-02,5.1,0.2,0.1
4.194740e-02,4.9,0.2,0.1
4.194760e-02,5.3,0,0.1
4.194780e-02,5.1,0.2,0.1
4.194800e-02,5.1,0,0.3
4.194820e-02,5.1,0,0.1
4.194840e-02,5.3,0.2,-0.1
4.194860e-02,5.1,0.2,0.1
4.194880e-02,5.1,0,-0.1
4.194900e-02,5.1,0,0.1
4.194920e-02,5.1,0.4,-0.1
4.194940e-02,5.3,0.2,0.3
4.194960e-02,5.1,0.2,0.1
4.194980e-02,5.1,0.2,0.1
4.195000e-02,5.1,0,0.1
4.195020e-02,4.9,0.2,0.1
4.195040e-02,5.1,0,0.1
4.195060e-02,5.3,0,0.1
4.195080e-02,5.3,0.2,-0.1
4.195100e-02,5.3,0,0.1
4.195120e-02,4.9,0.2,0.1
4.195140e-02,5.1,0.2,0.1
4.195160e-02,4.9,0.4,-0.1
4.195180e-02,5.3,0,0.1
4.195200e-02,5.3,0.2,0.1
4.195220e-02,4.9,0.2,0.1
4.195240e-02,5.1,0.2,0.1
4.195260e-02,5.1,0,0.1
4.195280e-02,5.3,0,0.3
4.195300e-02,5.1,0.2,0.1
4.195320e-02,5.3,0,0.1
4.195340e-02,5.3,0.2,0.1
4.195360e-02,5.1,0,0.1
4.195380e-02,4.9,0.2,-0.1
4.195400e-02,5.1,0.2,0.1
4.195420e-02,5.3,0.2,0.1
4.195440e-02,4.9,0.2,-0.1
4.195460e-02,5.3,0.2,0.3
4.195480e-02,5.1,0.2,0.1
4.195500e-02,5.3,0,0.1
4.195520e-02,4.9,0.2,-0.1
4.195540e-02,5.3,0,0.3
4.195560e-02,5.1,0,-0.1
4.195580e-02,4.9,0,0.3
4.195600e-02,5.3,0.2,0.1
4.195620e-02,5.3,0.2,-0.1
4.195640e-02,5.3,0.2,0.3
4.195660e-02,5.1,0.2,0.1
4.195680e-02,5.3,0.2,0.1
4.195700e-02,5.1,0.2,0.1
4.195720e-02,5.3,0,0.1
4.195740e-02,5.1,0,-0.1
4.195760e-02,5.1,0.2,0.1
4.195780e-02,5.3,0,-0.1
4.195800e-02,5.1,0.2,0.3
4.195820e-02,5.1,0,0.1
4.195840e-02,5.1,0.2,-0.1
4.195860e-02,5.1,0,0.1
4.195880e-02,5.3,0,-0.1
4.195900e-02,5.1,0,0.1
4.195920e-02,5.3,0.2,0.1
4.195940e-02,5.3,0,-0.1
4.195960e-02,5.3,0.2,-0.1
4.195980e-02,5.1,0.2,0.1
4.196000e-02,5.1,0.2,0.1
4.196020e-02,5.3,0.4,-0.1
4.196040e-02,4.9,0,-0.1
4.196060e-02,5.3,0,0.1
4.196080e-02,5.3,0,-0.1
4.196100e-02,5.3,0.2,0.1
4.196120e-02,5.3,0,0.1
4.196140e-02,5.1,0.2,0.1
4.196160e-02,5.1,0.2,0.1
4.196180e-02,5.1,0.4,0.1
4.196200e-02,4.9,0.2,0.1
4.196220e-02,5.3,0.2,-0.1
4.196240e-02,5.1,0,0.1
4.196260e-02,5.1,0,0.1
4.196280e-02,5.3,0,0.1
4.196300e-02,4.9,0.2,-0.1
4.196320e-02,5.1,0.2,0.1
4.196340e-02,4.9,0.2,0.1
4.196360e-02,5.1,0.2,-0.1
4.196380e-02,5.3,0.2,0.1
4.196400e-02,5.1,0.2,0.1
4.196420e-02,5.3,0.2,0.1
4.196440e-02,5.3,0,0.1
4.196460e-02,5.1,0.2,0.1
4.196480e-02,5.1,0.2,0.1
4.196500e-02,5.1,0,0.1
4.196520e-02,5.3,0.2,0.1
4.196540e-02,4.9,0,0.1
4.196560e-02,4.9,0.2,0.1
4.196580e-02,5.1,0.6,0.1
4.196600e-02,5.3,0.2,0.1
4.196620e-02,5.1,0.2,0.1
4.196640e-02,5.1,0.2,0.1
4.196660e-02,4.9,0.2,0.1
4.196680e-02,5.1,0.2,0.1
4.196700e-02,4.9,0.4,-0.1
4.196720e-02,5.1,0.2,0.1
4.196740e-02,5.1,0.2,0.1
4.196760e-02,5.1,0.2,0.1
4.196780e-02,4.9,0,0.3
4.196800e-02,5.1,0,0.1
4.196820e-02,5.3,0.2,0.3
4.196840e-02,5.3,0.4,0.1
4.196860e-02,4.9,0,0.1
4.196880e-02,4.9,0,-0.1
4.196900e-02,5.3,0,0.1
4.196920e-02,5.3,0,0.1
4.196940e-02,4.9,0,0.1
4.196960e-02,5.3,0.4,0.3
4.196980e-02,5.1,0.4,0.3
4.197000e-02,5.1,0.4,0.1
4.197020e-02,5.3,0.2,0.1
4.197040e-02,5.3,0.2,0.1
4.197060e-02,5.1,0.4,0.1
4.197080e-02,5.1,0.2,0.1
4.197100e-02,5.1,0,0.1
4.197120e-02,4.9,0,0.3
4.197140e-02,4.9,0.2,0.1
4.197160e-02,5.5,0,0.3
4.197180e-02,5.3,0,0.1
4.197200e-02,5.1,0,0.1
4.197220e-02,4.9,0.2,0.1
4.197240e-02,5.1,0.2,0.1
4.197260e-02,5.1,0.4,0.1
4.197280e-02,5.1,0,0.3
4.197300e-02,5.1,0.2,0.1
4.197320e-02,5.1,0,0.3
4.197340e-02,5.3,0.4,0.1
4.197360e-02,4.9,0.4,0.1
4.197380e-02,5.1,0,0.1
4.197400e-02,5.5,0,0.1
4.197420e-02,5.3,0.2,0.1
4.197440e-02,5.1,0.2,0.1
4.197460e-02,4.9,0.2,0.1
4.197480e-02,5.1,0,0.1
4.197500e-02,5.3,0.2,0.1
4.197520e-02,5.3,0,0.1
4.197540e-02,5.1,0.2,-0.1
4.197560e-02,5.1,0.2,0.1
4.197580e-02,5.1,0,0.1
4.197600e-02,5.1,0.2,-0.1
4.197620e-02,5.1,0.2,0.1
4.197640e-02,5.1,0,0.1
4.197660e-02,5.1,0.2,-0.1
4.197680e-02,5.3,0.2,0.1
4.197700e-02,5.1,0.4,0.1
4.197720e-02,4.9,0,0.3
4.197740e-02,4.9,0.2,0.1
4.197760e-02,4.9,0.2,0.1
4.197780e-02,5.3,0.2,0.1
4.197800e-02,5.3,0,0.1
4.197820e-02,5.1,0.2,0.1
4.197840e-02,5.1,0.2,0.3
4.197860e-02,5.5,0,0.3
4.197880e-02,5.3,0.2,0.1
4.197900e-02,5.3,0,0.1
4.197920e-02,4.9,0.2,0.1
4.197940e-02,5.1,0.2,0.1
4.197960e-02,5.1,0,0.1
4.197980e-02,5.3,0,0.3
4.198000e-02,5.3,0.2,-0.1
4.198020e-02,5.1,0,0.1
4.198040e-02,5.3,0,0.1
4.198060e-02,5.1,0.2,0.3
4.198080e-02,5.3,0.2,0.1
4.198100e-02,5.1,0.2,-0.1
4.198120e-02,5.1,0,-0.1
4.198140e-02,4.9,0,0.1
4.198160e-02,5.1,0.2,0.1
4.198180e-02,5.1,0.4,0.1
4.198200e-02,5.1,0,-0.3
4.198220e-02,5.1,0.2,0.1
4.198240e-02,5.1,0.2,0.1
4.198260e-02,5.3,0,0.1
4.198280e-02,5.1,0.2,-0.1
4.198300e-02,5.1,0,0.1
4.198320e-02,4.9,0.2,0.1
4.198340e-02,5.1,0.2,-0.1
4.198360e-02,5.3,0.2,-0.1
4.198380e-02,5.3,0,0.1
4.198400e-02,5.3,0,0.1
4.198420e-02,5.3,0,0.1
4.198440e-02,5.3,0,0.1
4.198460e-02,5.1,0,0.3
4.198480e-02,5.1,0,0.1
4.198500e-02,4.9,0,0.1
4.198520e-02,5.5,0.2,0.1
4.198540e-02,5.1,0,-0.1
4.198560e-02,5.1,0,0.1
4.198580e-02,5.1,0.2,-0.1
4.198600e-02,5.3,0.2,-0.1
4.198620e-02,5.1,0.2,0.1
4.198640e-02,5.1,0,-0.3
4.198660e-02,5.1,0.2,-0.1
4.198680e-02,5.1,0.2,0.3
4.198700e-02,5.1,0,0.1
4.198720e-02,5.3,0.2,0.3
4.198740e-02,5.3,0,0.3
4.198760e-02,5.1,0.2,0.3
4.198780e-02,4.9,0,0.1
4.198800e-02,5.1,0.2,0.3
4.198820e-02,5.3,0.2,0.3
4.198840e-02,5.1,0,0.3
4.198860e-02,5.1,0.2,-0.1
4.198880e-02,5.1,0.2,0.1
4.198900e-02,5.1,0,-0.1
4.198920e-02,4.9,0.2,-0.1
4.198940e-02,5.3,0.4,-0.1
4.198960e-02,4.9,0.2,-0.1
4.198980e-02,4.9,0,0.1
4.199000e-02,5.1,0.2,-0.1
4.199020e-02,5.5,0,0.3
4.199040e-02,4.9,0.2,-0.1
4.199060e-02,5.1,0,0.1
4.199080e-02,5.1,0.2,-0.1
4.199100e-02,5.1,0.2,0.1
4.199120e-02,5.3,0,-0.3
4.199140e-02,5.1,0,-0.1
4.199160e-02,5.3,0.2,0.1
4.199180e-02,5.1,0,0.1
4.199200e-02,5.1,0.2,0.1
4.199220e-02,5.3,0,0.1
4.199240e-02,4.9,0.2,0.1
4.199260e-02,5.1,0.2,-0.1
4.199280e-02,5.1,0.4,-0.1
4.199300e-02,5.1,0.2,0.1
4.199320e-02,5.1,0.2,-0.1
4.199340e-02,4.9,0.2,0.1
4.199360e-02,4.9,0,0.1
4.199380e-02,5.3,0.2,0.1
4.199400e-02,5.1,0.4,-0.1
4.199420e-02,5.1,0,0.1
4.199440e-02,5.3,0,0.3
4.199460e-02,5.3,0,0.3
4.199480e-02,5.1,0.2,0.1
4.199500e-02,5.1,0,0.1
4.199520e-02,4.9,0.2,0.1
4.199540e-02,5.1,0.4,0.3
4.199560e-02,5.1,0,0.1
4.199580e-02,5.3,0,0.3
4.199600e-02,4.9,0,0.3
4.199620e-02,5.3,0,0.1
4.199640e-02,4.7,0.2,0.1
4.199660e-02,5.1,0.2,0.1
4.199680e-02,5.1,0.2,-0.1
4.199700e-02,5.3,0,0.1
4.199720e-02,5.1,0.2,-0.1
4.199740e-02,5.1,0.2,0.1
4.199760e-02,5.1,0.4,0.1
4.199780e-02,5.1,0.2,0.1
4.199800e-02,4.9,0.2,0.1
4.199820e-02,5.1,0,0.1
4.199840e-02,5.1,0.2,0.1
4.199860e-02,4.9,0.2,0.3
4.199880e-02,5.1,0,-0.1
4.199900e-02,5.1,0,-0.1
4.199920e-02,5.1,0,0.1
4.199940e-02,4.9,0.2,0.1
4.199960e-02,5.1,0.2,0.1
4.199980e-02,5.3,0.2,0.1
4.200000e-02,5.3,0.2,0.1
4.200020e-02,4.9,0.2,0.3
4.200040e-02,5.3,0.2,0.1
4.200060e-02,5.1,0,0.1
4.200080e-02,5.3,0.2,-0.1
4.200100e-02,5.3,0,0.1
4.200120e-02,5.1,0.2,0.1
4.200140e-02,5.1,0,0.3
4.200160e-02,5.1,0,0.1
4.200180e-02,5.3,0,0.3
4.200200e-02,5.3,0,0.1
4.200220e-02,5.1,0,0.1
4.200240e-02,5.1,0,0.1
4.200260e-02,5.3,0.2,-0.1
4.200280e-02,4.9,0.2,-0.1
4.200300e-02,5.1,0.2,0.1
4.200320e-02,5.1,0.2,0.1
4.200340e-02,5.3,0,0.1
4.200360e-02,5.3,0.2,0.1
4.200380e-02,5.1,0,0.5
4.200400e-02,5.3,0.2,0.1
4.200420e-02,5.5,0.2,0.1
4.200440e-02,5.1,0,0.1
4.200460e-02,5.1,0,0.1
4.200480e-02,5.3,0.2,0.1
4.200500e-02,5.3,0.2,0.1
4.200520e-02,5.1,0,0.3
4.200540e-02,5.1,0,0.1
4.200560e-02,5.1,0.2,0.1
4.200580e-02,5.3,0,-0.1
4.200600e-02,5.3,0.2,0.3
4.200620e-02,5.3,0.2,0.1
4.200640e-02,5.3,0,0.1
4.200660e-02,5.3,0.2,0.3
4.200680e-02,5.1,0.4,0.1
4.200700e-02,5.3,0,0.1
4.200720e-02,5.1,0.2,0.1
4.200740e-02,5.3,0,0.1
4.200760e-02,5.1,0.2,0.1
4.200780e-02,5.1,0.2,0.1
4.200800e-02,4.9,0.2,0.1
4.200820e-02,5.1,0.2,0.1
4.200840e-02,4.9,0,0.1
4.200860e-02,5.1,0.2,0.1
4.200880e-02,5.3,0.2,0.1
4.200900e-02,5.1,0.2,0.1
4.200920e-02,5.3,0.2,0.1
4.200940e-02,4.9,0.2,0.3
4.200960e-02,5.1,0.2,0.1
4.200980e-02,5.1,0,0.1
4.201000e-02,5.1,0,0.1
4.201020e-02,5.1,0.2,0.1
4.201040e-02,5.1,0.2,0.1
4.201060e-02,5.1,0,0.1
4.201080e-02,5.1,0,0.1
4.201100e-02,5.1,0.2,0.1
4.201120e-02,4.9,0.2,0.1
4.201140e-02,5.1,0,0.3
4.201160e-02,5.1,0.2,0.1
4.201180e-02,5.3,0.2,1.1
4.201200e-02,5.1,0.2,2.9
4.201220e-02,5.1,0.4,3.3
4.201240e-02,5.3,0.6,3.5
4.201260e-02,5.1,2.2,3.5
4.201280e-02,5.3,3.2,3.9
4.201300e-02,5.3,3.8,3.9
4.201320e-02,5.3,4.6,3.9
4.201340e-02,5.3,4.8,4.3
4.201360e-02,5.3,4.8,4.1
4.201380e-02,5.1,5,4.1
4.201400e-02,5.3,5,4.3
4.201420e-02,5.3,5,4.1
4.201440e-02,5.3,4.8,3.9
4.201460e-02,5.1,4.8,4.1
4.201480e-02,5.3,4.8,4.1
4.201500e-02,5.1,4.8,4.1
4.201520e-02,5.1,4.8,4.1
4.201540e-02,4.9,5,3.9
4.201560e-02,5.3,5,4.1
4.201580e-02,4.9,4.8,4.1
4.201600e-02,5.3,5,4.1
4.201620e-02,5.3,4.8,4.3
4.201640e-02,4.9,4.8,4.1
4.201660e-02,5.1,5,4.5
4.201680e-02,4.9,5,4.5
4.201700e-02,5.1,5,4.1
4.201720e-02,5.1,5,4.5
4.201740e-02,5.1,5,4.1
4.201760e-02,5.1,4.8,4.7
4.201780e-02,5.3,4.8,4.3
4.201800e-02,5.3,5,4.3
4.201820e-02,5.1,5,4.3
4.201840e-02,5.1,4.8,4.5
4.201860e-02,5.1,5.2,4.5
4.201880e-02,5.1,5,4.3
4.201900e-02,5.3,4.8,4.7
4.201920e-02,5.5,4.8,4.5
4.201940e-02,5.3,5,4.5
4.201960e-02,5.1,5,4.5
4.201980e-02,5.1,4.8,4.5
4.202000e-02,5.1,5.2,4.5
4.202020e-02,5.1,5,4.5
4.202040e-02,5.1,5,4.5
4.202060e-02,5.3,4.8,4.3
4.202080e-02,4.9,5,4.7
4.202100e-02,5.1,4.8,4.7
4.202120e-02,5.1,5,4.7
4.202140e-02,5.5,4.8,4.7
4.202160e-02,5.1,5,4.5
4.202180e-02,5.1,4.8,4.7
4.202200e-02,5.3,5,4.5
4.202220e-02,5.1,5,4.5
4.202240e-02,5.1,5,4.7
4.202260e-02,5.3,5,4.5
4.202280e-02,5.5,4.8,4.5
4.202300e-02,5.3,5,4.7
4.202320e-02,5.1,5,4.5
4.202340e-02,5.1,5,4.5
4.202360e-02,5.1,4.8,4.5
4.202380e-02,5.1,4.8,4.5
4.202400e-02,5.1,5,4.7
4.202420e-02,5.5,4.8,4.9
4.202440e-02,5.3,5,4.9
4.202460e-02,5.1,5,4.7
4.202480e-02,4.9,5,4.5
4.202500e-02,5.1,5,4.9
4.202520e-02,5.3,4.8,4.9
4.202540e-02,5.1,4.8,4.7
4.202560e-02,5.1,5,4.7
4.202580e-02,5.3,4.8,4.7
4.202600e-02,5.1,5,4.5
4.202620e-02,5.1,4.8,4.5
4.202640e-02,5.1,5,4.7
4.202660e-02,5.3,5,4.9
4.202680e-02,5.1,5,5.1
4.202700e-02,5.1,4.8,4.7
4.202720e-02,5.1,5,5.1
4.202740e-02,5.3,5.2,4.9
4.202760e-02,5.3,5.2,4.7
4.202780e-02,5.3,4.8,4.9
4.202800e-02,4.9,5,4.7
4.202820e-02,5.3,5,4.9
4.202840e-02,5.3,5,5.1
4.202860e-02,5.1,5,5.1
4.202880e-02,5.1,4.8,5.1
4.202900e-02,5.1,5,5.1
4.202920e-02,5.3,5,4.9
4.202940e-02,5.3,5,4.9
4.202960e-02,5.1,4.8,4.7
4.202980e-02,5.1,5,5.1
4.203000e-02,5.3,4.8,4.9
4.203020e-02,4.9,5.2,5.1
4.203040e-02,5.3,4.8,5.1
4.203060e-02,5.3,4.8,5.1
4.203080e-02,4.9,5,5.1
4.203100e-02,5.3,5,4.9
4.203120e-02,5.1,5,4.9
4.203140e-02,5.1,4.8,4.9
4.203160e-02,4.9,5,4.7
4.203180e-02,5.1,4.8,4.9
4.203200e-02,5.3,4.8,4.9
4.203220e-02,5.1,4.8,5.1
4.203240e-02,5.1,4.8,5.1
4.203260e-02,5.1,5,5.1
4.203280e-02,5.3,5,5.1
4.203300e-02,5.1,5,4.9
4.203320e-02,5.3,5,4.9
4.203340e-02,5.1,5,4.7
4.203360e-02,5.1,4.8,5.1
4.203380e-02,5.3,5,5.1
4.203400e-02,5.3,5,4.7
4.203420e-02,4.9,5,4.9
4.203440e-02,5.1,4.8,5.1
4.203460e-02,4.9,4.8,5.1
4.203480e-02,4.9,4.8,5.1
4.203500e-02,4.9,5.2,5.1
4.203520e-02,5.1,5,4.9
4.203540e-02,5.1,4.8,5.1
4.203560e-02,5.3,5,4.7
4.203580e-02,5.1,4.8,4.7
4.203600e-02,4.9,5,4.7
4.203620e-02,4.9,5,4.9
4.203640e-02,5.1,5,5.1
4.203660e-02,5.3,5,4.9
4.203680e-02,5.3,4.8,4.7
4.203700e-02,5.3,4.8,5.1
4.203720e-02,5.3,5,5.1
4.203740e-02,4.9,5,5.1
4.203760e-02,5.3,5.2,4.9
4.203780e-02,5.1,5,4.7
4.203800e-02,5.1,5.2,5.1
4.203820e-02,5.1,5.2,4.9
4.203840e-02,5.1,5,4.9
4.203860e-02,5.1,5.2,4.9
4.203880e-02,5.1,5,5.1
4.203900e-02,4.9,5,4.9
4.203920e-02,5.1,4.8,5.1
4.203940e-02,5.1,5,4.5
4.203960e-02,5.5,5,5.1
4.203980e-02,5.3,5,5.1
4.204000e-02,5.5,5,5.1
4.204020e-02,5.3,5.4,4.9
4.204040e-02,5.3,5,4.9
4.204060e-02,5.1,4.8,5.1
4.204080e-02,5.1,4.8,5.1
4.204100e-02,5.3,4.8,5.1
4.204120e-02,4.9,5,4.7
4.204140e-02,5.1,5.2,5.1
4.204160e-02,4.9,4.8,5.1
4.204180e-02,5.1,4.8,4.9
4.204200e-02,5.3,5.2,4.9
4.204220e-02,5.3,5,5.1
4.204240e-02,5.3,5,5.1
4.204260e-02,4.9,4.8,4.9
4.204280e-02,5.3,5,5.1
4.204300e-02,4.9,5,4.9
4.204320e-02,5.3,4.8,4.9
4.204340e-02,4.7,4.8,4.9
4.204360e-02,5.3,4.8,5.1
4.204380e-02,5.1,5,4.9
4.204400e-02,5.1,5,4.9
4.204420e-02,5.3,5,4.9
4.204440e-02,5.1,5.2,4.9
4.204460e-02,5.3,5,4.9
4.204480e-02,5.1,5,5.1
4.204500e-02,5.1,4.8,5.1
4.204520e-02,5.1,5,5.1
4.204540e-02,5.1,5,4.9
4.204560e-02,5.1,4.8,5.1
4.204580e-02,5.3,5,4.7
4.204600e-02,5.3,5,5.1
4.204620e-02,4.9,4.8,4.9
4.204640e-02,5.1,4.6,4.9
4.204660e-02,5.1,4.8,5.1
4.204680e-02,5.3,5,5.1
4.204700e-02,5.3,5.2,5.1
4.204720e-02,5.1,5,4.7
4.204740e-02,5.1,5,4.9
4.204760e-02,5.1,5,5.1
4.204780e-02,4.9,5,4.9
4.204800e-02,4.9,5,4.9
4.204820e-02,5.1,5,4.9
4.204840e-02,4.9,5,5.1
4.204860e-02,5.3,4.8,4.9
4.204880e-02,5.1,5,5.1
4.204900e-02,5.3,5,5.1
4.204920e-02,5.1,5.2,4.9
4.204940e-02,5.1,5,5.1
4.204960e-02,5.3,5,4.9
4.204980e-02,5.5,4.8,5.1
4.205000e-02,5.3,5,5.1
4.205020e-02,5.1,4.8,4.9
4.205040e-02,5.3,4.8,5.1
4.205060e-02,5.3,4.8,4.9
4.205080e-02,5.1,5,4.9
4.205100e-02,5.1,5.2,4.7
4.205120e-02,5.3,5.2,4.9
4.205140e-02,5.1,5.2,5.1
4.205160e-02,5.1,5,4.9
4.205180e-02,5.1,5,4.7
4.205200e-02,5.3,4.8,5.1
4.205220e-02,4.9,5,4.7
4.205240e-02,4.9,5.2,5.1
4.205260e-02,5.3,5,4.9
4.205280e-02,5.3,4.8,5.1
4.205300e-02,5.3,5,5.1
4.205320e-02,5.3,5,4.7
4.205340e-02,5.1,5,4.9
4.205360e-02,5.3,5,4.9
4.205380e-02,5.3,5,4.7
4.205400e-02,5.1,4.8,5.1
4.205420e-02,4.9,5.2,4.9
4.205440e-02,4.9,5,4.7
4.205460e-02,5.1,5,5.1
4.205480e-02,5.1,5,4.9
4.205500e-02,5.1,5,4.9
4.205520e-02,5.1,5.2,4.9
4.205540e-02,5.1,5,5.1
4.205560e-02,5.1,5,4.9
4.205580e-02,5.1,4.8,5.1
4.205600e-02,5.1,5.2,4.9
4.205620e-02,5.3,5,5.1
4.205640e-02,5.1,5,4.7
4.205660e-02,5.3,4.8,5.1
4.205680e-02,5.3,5.4,5.1
4.205700e-02,5.1,5,4.9
4.205720e-02,5.1,5,5.1
4.205740e-02,5.1,5,4.9
4.205760e-02,5.3,5,5.1
4.205780e-02,5.3,5,4.7
4.205800e-02,5.1,5,4.9
4.205820e-02,5.1,4.8,4.7
4.205840e-02,5.1,4.8,5.1
4.205860e-02,5.3,5,4.9
4.205880e-02,5.1,5,5.1
4.205900e-02,5.1,4.8,4.9
4.205920e-02,4.9,4.8,5.1
4.205940e-02,5.1,5,5.1
4.205960e-02,5.1,5,5.1
4.205980e-02,5.1,4.8,5.1
4.206000e-02,5.1,5,4.7
4.206020e-02,5.1,5,5.1
4.206040e-02,5.1,5,4.9
4.206060e-02,5.3,5.2,4.7
4.206080e-02,4.9,5,5.1
4.206100e-02,5.1,5,4.9
4.206120e-02,5.1,5,4.7
4.206140e-02,5.1,4.8,5.1
4.206160e-02,5.5,5,5.1
4.206180e-02,5.1,4.8,4.7
4.206200e-02,5.1,4.8,5.1
4.206220e-02,5.1,5,4.7
4.206240e-02,5.1,4.8,4.9
4.206260e-02,5.1,5,5.1
4.206280e-02,5.3,5,4.7
4.206300e-02,5.1,4.6,5.1
4.206320e-02,4.9,5.2,4.9
4.206340e-02,5.3,5,5.1
4.206360e-02,4.9,5,5.1
4.206380e-02,4.9,5,4.9
4.206400e-02,5.3,5,5.1
4.206420e-02,5.1,5,5.1
4.206440e-02,5.1,4.8,5.1
4.206460e-02,5.1,4.8,4.9
4.206480e-02,5.1,4.8,5.1
4.206500e-02,5.1,4.8,4.9
4.206520e-02,5.3,5,4.9
4.206540e-02,5.1,5,4.7
4.206560e-02,5.1,5,4.9
4.206580e-02,5.1,5,4.9
4.206600e-02,4.9,5,5.1
4.206620e-02,5.3,4.8,4.7
4.206640e-02,5.1,5,4.9
4.206660e-02,5.1,5,5.1
4.206680e-02,5.1,5,5.1
4.206700e-02,5.3,4.8,5.1
4.206720e-02,5.1,5,5.1
4.206740e-02,5.1,5,4.9
4.206760e-02,5.1,4.8,5.1
4.206780e-02,5.5,4.8,4.9
4.206800e-02,4.9,5,5.1
4.206820e-02,5.1,4.8,5.1
4.206840e-02,5.5,4.8,4.7
4.206860e-02,5.3,5,5.1
4.206880e-02,5.1,5,4.9
4.206900e-02,5.3,5,5.1
4.206920e-02,5.1,5,5.1
4.206940e-02,5.3,4.8,4.7
4.206960e-02,5.3,4.8,5.1
4.206980e-02,5.1,5,5.1
4.207000e-02,4.9,4.6,4.7
4.207020e-02,5.1,5.2,4.9
4.207040e-02,4.9,5,5.1
4.207060e-02,5.3,5,4.9
4.207080e-02,5.3,5,5.1
4.207100e-02,5.3,5,5.1
4.207120e-02,5.3,5,4.9
4.207140e-02,4.9,5,4.7
4.207160e-02,5.3,5,5.1
4.207180e-02,5.1,5.2,4.9
4.207200e-02,5.1,5,4.9
4.207220e-02,5.3,5,4.7
4.207240e-02,5.3,4.8,4.7
4.207260e-02,5.3,5,4.7
4.207280e-02,5.1,4.8,5.1
4.207300e-02,5.1,5,4.7
4.207320e-02,5.3,5,4.9
4.207340e-02,5.3,4.8,5.1
4.207360e-02,5.3,5,5.1
4.207380e-02,5.1,4.8,4.7
4.207400e-02,5.1,5,5.1
4.207420e-02,5.1,5,5.1
4.207440e-02,5.1,5,5.1
4.207460e-02,5.1,4.8,4.9
4.207480e-02,4.9,4.8,4.9
4.207500e-02,5.1,5,5.1
4.207520e-02,5.1,5,5.1
4.207540e-02,5.3,5,4.7
4.207560e-02,5.1,4.8,4.7
4.207580e-02,5.1,5,4.7
4.207600e-02,5.3,4.8,4.9
4.207620e-02,5.3,4.8,4.9
4.207640e-02,5.1,5,5.1
4.207660e-02,5.3,4.8,5.1
4.207680e-02,4.9,4.8,5.1
4.207700e-02,5.1,5,4.7
4.207720e-02,5.3,5.2,4.9
4.207740e-02,5.3,5,5.1
4.207760e-02,5.1,5,5.1
4.207780e-02,5.1,5,5.1
4.207800e-02,5.3,5.2,5.1
4.207820e-02,5.1,5,4.7
4.207840e-02,5.1,5,4.7
4.207860e-02,5.1,5.2,5.1
4.207880e-02,4.9,5,4.9
4.207900e-02,5.3,4.8,4.9
4.207920e-02,4.9,5,4.9
4.207940e-02,4.9,4.8,4.7
4.207960e-02,4.9,4.8,4.7
4.207980e-02,5.3,4.8,5.1
4.208000e-02,5.1,5,4.7
4.208020e-02,5.1,5.2,5.1
4.208040e-02,5.1,5,4.7
4.208060e-02,5.1,5,4.9
4.208080e-02,4.9,5,5.1
4.208100e-02,5.1,5,5.1
4.208120e-02,5.1,5.2,4.9
4.208140e-02,5.3,5.4,5.1
4.208160e-02,4.9,4.8,4.7
4.208180e-02,4.9,5,4.7
4.208200e-02,5.3,5.2,4.9
4.208220e-02,5.1,5,4.9
4.208240e-02,4.9,5,4.9
4.208260e-02,5.1,4.8,5.1
4.208280e-02,5.3,4.8,5.1
4.208300e-02,5.1,5,5.1
4.208320e-02,5.1,5.2,5.1
4.208340e-02,5.1,4.8,5.1
4.208360e-02,5.1,5.2,4.9
4.208380e-02,5.3,5.2,5.1
4.208400e-02,4.9,5,5.1
4.208420e-02,5.1,5,5.1
4.208440e-02,5.1,5,5.3
4.208460e-02,5.3,5,4.9
4.208480e-02,5.5,4.8,4.9
4.208500e-02,5.3,5,5.1
4.208520e-02,5.3,5,4.7
4.208540e-02,4.9,4.6,4.9
4.208560e-02,5.1,5,5.1
4.208580e-02,4.9,5.2,5.1
4.208600e-02,5.1,5,4.7
4.208620e-02,5.1,5.2,5.1
4.208640e-02,5.1,5,4.7
4.208660e-02,4.9,5,4.9
4.208680e-02,5.1,5.2,5.1
4.208700e-02,5.1,4.8,5.1
4.208720e-02,5.1,5,5.1
4.208740e-02,5.3,4.8,4.9
4.208760e-02,5.1,5,5.1
4.208780e-02,5.1,5.2,4.9
4.208800e-02,5.1,5,4.9
4.208820e-02,5.1,5.2,4.9
4.208840e-02,5.1,5,4.7
4.208860e-02,5.1,5,5.1
4.208880e-02,4.9,5.2,4.9
4.208900e-02,5.3,5,4.5
4.208920e-02,4.9,4.8,5.1
4.208940e-02,5.1,5,5.1
4.208960e-02,5.3,5.2,4.7
4.208980e-02,5.3,5,4.7
4.209000e-02,5.1,5,5.1
4.209020e-02,5.3,5,4.9
4.209040e-02,4.9,5,5.1
4.209060e-02,5.3,5,5.1
4.209080e-02,5.1,4.8,4.9
4.209100e-02,4.9,5.2,5.1
4.209120e-02,5.3,4.8,5.1
4.209140e-02,5.1,5,4.7
4.209160e-02,4.9,4.8,5.1
4.209180e-02,5.3,5,5.1
4.209200e-02,5.1,4.8,4.9
